{
  "type": "object",
  "javaType": "io.classpath.kafka.examples.types.DeliveryAddress",
  "properties": {
    "AddressLine": {"type": "string"},
    "City": {"type": "string"},
    "State": {"type": "string"},
    "PinCode": {"type": "string"},
    "ContactNumber": {"type": "string"}
  }
}